"Source:","/Users/robotto/Hack/pwts/PCB_modules/ultra/ultra.kicad_sch"
"Date:","Sunday, 28 August 2022 at 22:29:59"
"Tool:","Eeschema (6.0.5-0)"
"Generator:","/Applications/KiCad/KiCad.app/Contents/SharedSupport/plugins/bom_csv_grouped_by_value.py"
"Component Count:","12"

"Individual Components:"

"Item","Qty","Reference(s)","Value","LibPart","Footprint","Datasheet","Mouser"
"","","C1","CP","ultra-rescue:CP-Device","Capacitor_THT:C_Radial_D18.0mm_H35.5mm_P7.50mm","","https://www.mouser.dk/ProductDetail/Kyocera-AVX/SCMT22F505PRBA0?qs=qSfuJ%252Bfl%2Fd64%2FYT6j8GuTA%3D%3D"
"","","C2","CP","ultra-rescue:CP-Device","Capacitor_THT:C_Radial_D18.0mm_H35.5mm_P7.50mm","",""
"","","D1","1N5817","Diode:1N5817","Diode_THT:D_DO-41_SOD81_P10.16mm_Horizontal","http://www.vishay.com/docs/88525/1n5817.pdf","511-1N5817"
"","","INPUT1","XT-30_MALE","ultra-rescue:Conn_01x02_Male-Connector","Connector_AMASS:AMASS_XT30PW-M_1x02_P2.50mm_Horizontal","",""
"","","LED1","LED_KRGB","Device:LED_KRGB","PWTS:LED_RGB","https://www.mouser.dk/datasheet/2/216/APTF1616LSEKJ3ZGKQBC-786425.pdf","https://www.mouser.dk/ProductDetail/Kingbright/APTF1616LSEKJ3ZGKQBC?qs=ZqXcJfGlKsilY2K6EwZ11Q%3D%3D"
"","","OUTPUT1","XT-30_FEMALE","ultra-rescue:Conn_01x02_Male-Connector","Connector_AMASS:AMASS_XT30PW-F_1x02_P2.50mm_Horizontal","",""
"","","R1","440","ultra-rescue:R-Device","Resistor_SMD:R_1206_3216Metric","","https://www.mouser.dk/ProductDetail/YAGEO/RT1206BRD07442RL?qs=sGAEpiMZZMtlubZbdhIBIJ7yYQeDdCmRkOEroFIE55A%3D"
"","","R2","480","ultra-rescue:R-Device","Resistor_SMD:R_1206_3216Metric","","https://www.mouser.dk/ProductDetail/YAGEO/RT1206FRE07470RL?qs=yNCrj0CQcyINIXapwYY9FA%3D%3D"
"","","R3","620","ultra-rescue:R-Device","Resistor_SMD:R_1206_3216Metric","","https://www.mouser.dk/ProductDetail/YAGEO/RT1206FRE07470RL?qs=yNCrj0CQcyINIXapwYY9FA%3D%3D"
"","","RL1","R_Potentiometer_Trim","Device:R_Potentiometer_Trim","PWTS:Potentiometer_Bourns_3352T","~",""
"","","RL2","R","Device:R","Resistor_THT:R_Axial_DIN0204_L3.6mm_D1.6mm_P7.62mm_Horizontal","~","https://www.mouser.dk/ProductDetail/YAGEO/RT1206FRE0720RL?qs=Tm5%2FgA0LzVVm0LtvGwa26g%3D%3D"
"","","Z1","5.45V","Device:D_Zener","Diode_SMD:D_SOD-323_HandSoldering","https://fscdn.rohm.com/en/products/databook/datasheet/discrete/diode/zener/ufzvte-175.6b-e.pdf","https://www.mouser.dk/ProductDetail/ROHM-Semiconductor/UFZVTE-175.6B?qs=HXFqYaX1Q2wygCxp2MwFUQ%3D%3D"



"Collated Components:"

"Item","Qty","Reference(s)","Value","LibPart","Footprint","Datasheet","Mouser"
"1","2","C1, C2","CP","ultra-rescue:CP-Device","Capacitor_THT:C_Radial_D18.0mm_H35.5mm_P7.50mm","","https://www.mouser.dk/ProductDetail/Kyocera-AVX/SCMT22F505PRBA0?qs=qSfuJ%252Bfl%2Fd64%2FYT6j8GuTA%3D%3D"
"2","1","D1","1N5817","Diode:1N5817","Diode_THT:D_DO-41_SOD81_P10.16mm_Horizontal","http://www.vishay.com/docs/88525/1n5817.pdf","511-1N5817"
"3","1","INPUT1","XT-30_MALE","ultra-rescue:Conn_01x02_Male-Connector","Connector_AMASS:AMASS_XT30PW-M_1x02_P2.50mm_Horizontal","",""
"4","1","LED1","LED_KRGB","Device:LED_KRGB","PWTS:LED_RGB","https://www.mouser.dk/datasheet/2/216/APTF1616LSEKJ3ZGKQBC-786425.pdf","https://www.mouser.dk/ProductDetail/Kingbright/APTF1616LSEKJ3ZGKQBC?qs=ZqXcJfGlKsilY2K6EwZ11Q%3D%3D"
"5","1","OUTPUT1","XT-30_FEMALE","ultra-rescue:Conn_01x02_Male-Connector","Connector_AMASS:AMASS_XT30PW-F_1x02_P2.50mm_Horizontal","",""
"6","1","R1","440","ultra-rescue:R-Device","Resistor_SMD:R_1206_3216Metric","","https://www.mouser.dk/ProductDetail/YAGEO/RT1206BRD07442RL?qs=sGAEpiMZZMtlubZbdhIBIJ7yYQeDdCmRkOEroFIE55A%3D"
"7","1","R2","480","ultra-rescue:R-Device","Resistor_SMD:R_1206_3216Metric","","https://www.mouser.dk/ProductDetail/YAGEO/RT1206FRE07470RL?qs=yNCrj0CQcyINIXapwYY9FA%3D%3D"
"8","1","R3","620","ultra-rescue:R-Device","Resistor_SMD:R_1206_3216Metric","","https://www.mouser.dk/ProductDetail/YAGEO/RT1206FRE07470RL?qs=yNCrj0CQcyINIXapwYY9FA%3D%3D"
"9","1","RL1","R_Potentiometer_Trim","Device:R_Potentiometer_Trim","PWTS:Potentiometer_Bourns_3352T","~",""
"10","1","RL2","R","Device:R","Resistor_THT:R_Axial_DIN0204_L3.6mm_D1.6mm_P7.62mm_Horizontal","~","https://www.mouser.dk/ProductDetail/YAGEO/RT1206FRE0720RL?qs=Tm5%2FgA0LzVVm0LtvGwa26g%3D%3D"
"11","1","Z1","5.45V","Device:D_Zener","Diode_SMD:D_SOD-323_HandSoldering","https://fscdn.rohm.com/en/products/databook/datasheet/discrete/diode/zener/ufzvte-175.6b-e.pdf","https://www.mouser.dk/ProductDetail/ROHM-Semiconductor/UFZVTE-175.6B?qs=HXFqYaX1Q2wygCxp2MwFUQ%3D%3D"
