$ 1 0.000005 0.41233529972698213 54 5 50 5e-11
R 272 160 224 160 0 0 400 2.25 0 0 0.159154943092
g 224 320 224 336 0 0
34 RED_LED 1 9.32e-11 0 4.122348801632941 0 0.002
162 336 288 272 288 2 RED_LED 1 0 0 0.02
r 272 288 224 288 0 500
w 224 288 224 320 0
403 112 112 192 160 0 0_64_0_4098_10_0.003125_-1_2_0_3_in
403 144 240 208 304 0 3_64_0_4355_5_0.00625_-1_2_3_3
403 240 208 304 272 0 2_64_0_4355_2.5_0.00625_-1_2_2_3
34 fwdrop\q2.65 1 9.32e-11 0 6.069013513515162 0 0.002
162 368 304 368 368 2 fwdrop\q2.65 1 1 0 0.02
162 416 368 416 400 2 fwdrop\q2.65 0 1 0 0.02
r 352 368 304 368 0 330
r 384 400 336 400 0 47
w 352 368 368 368 0
w 384 400 416 400 2
g 272 400 272 416 0 0
w 304 368 272 368 0
w 272 368 272 400 0
w 368 176 416 176 0
w 336 400 272 400 0
w 368 176 336 176 0
w 336 224 336 176 0
w 336 160 368 160 0
w 368 160 368 176 0
w 416 352 416 368 1
370 272 160 336 160 1 0 0
w 416 320 416 352 2
w 368 288 368 304 3
w 336 224 336 288 1
34 zener-2 1 1.7143528192810002e-7 0 2.0000000000000084 2 1
z 416 320 416 176 2 zener-2
34 zener-0.7-2 1 1.7143528192810002e-7 0 2.0000000000000084 0.7 1
z 368 288 368 176 2 zener-0.7-2
38 0 F1 0 0 5 -1 Voltage
