
(module SOT-23 (layer F.Cu) (tedit 62C5F716)
  (descr "")
  (fp_text reference REF** (at 0.0 -2.033225 0) (layer F.SilkS)
    (effects (font (size 0.800480314961 0.800480314961) (thickness 0.15)))
  )
  (fp_text value SOT-23 (at 0.0 2.03361 0) (layer F.Fab)
    (effects (font (size 0.80062992126 0.80062992126) (thickness 0.15)))
  )
  (pad 1 smd rect (at 0.9906 -1.016) (size 0.7874 0.889) (layers F.Cu F.Mask F.Paste))
  (pad 2 smd rect (at -0.9398 -1.016) (size 0.7874 0.889) (layers F.Cu F.Mask F.Paste))
  (pad 3 smd rect (at 0.0254 1.016) (size 0.7874 0.889) (layers F.Cu F.Mask F.Paste))
  (fp_line (start -1.4224 -0.381) (end 1.4732 -0.381) (layer F.SilkS) (width 0.1524))
  (fp_line (start 1.4732 -0.381) (end 1.4732 0.381) (layer F.SilkS) (width 0.1524))
  (fp_line (start 1.4732 0.381) (end -1.4224 0.381) (layer F.SilkS) (width 0.1524))
  (fp_line (start -1.4224 0.381) (end -1.4224 -0.381) (layer F.SilkS) (width 0.1524))
  (fp_poly
    (pts
      (xy 0.787518 -0.9398)
      (xy 1.1684 -0.9398)
      (xy 1.1684 -0.431865)
      (xy 0.787518 -0.431865)
    ) (layer F.Fab) (width 0.01)
  )
  (fp_poly
    (pts
      (xy -1.14446 -0.9398)
      (xy -0.762 -0.9398)
      (xy -0.762 -0.432353)
      (xy -1.14446 -0.432353)
    ) (layer F.Fab) (width 0.01)
  )
  (fp_poly
    (pts
      (xy -0.177993 0.4318)
      (xy 0.2032 0.4318)
      (xy 0.2032 0.940818)
      (xy -0.177993 0.940818)
    ) (layer F.Fab) (width 0.01)
  )
)